…
``` r
homicides_data = 
  homicides_data %>%
  mutate(
    city_state = str_c(city,state, sep = ","),
    case_status = ifelse(disposition %in% c("Closed without arrest","Open/No arrest"), "unsolved","solved")
         ) %>% relocate(city_state) %>% 
  filter(city_state != "Tulsa,AL")
homicides_data
```

    ## # A tibble: 52,178 × 14
    ##    city_state  uid   repor…¹ victi…² victi…³ victi…⁴ victi…⁵ victi…⁶ city  state
    ##    <chr>       <chr>   <dbl> <chr>   <chr>   <chr>     <dbl> <chr>   <chr> <chr>
    ##  1 Albuquerqu… Alb-…  2.01e7 GARCIA  JUAN    Hispan…      78 Male    Albu… NM   
    ##  2 Albuquerqu… Alb-…  2.01e7 MONTOYA CAMERON Hispan…      17 Male    Albu… NM   
    ##  3 Albuquerqu… Alb-…  2.01e7 SATTER… VIVIANA White        15 Female  Albu… NM   
    ##  4 Albuquerqu… Alb-…  2.01e7 MENDIO… CARLOS  Hispan…      32 Male    Albu… NM   
    ##  5 Albuquerqu… Alb-…  2.01e7 MULA    VIVIAN  White        72 Female  Albu… NM   
    ##  6 Albuquerqu… Alb-…  2.01e7 BOOK    GERALD… White        91 Female  Albu… NM   
    ##  7 Albuquerqu… Alb-…  2.01e7 MALDON… DAVID   Hispan…      52 Male    Albu… NM   
    ##  8 Albuquerqu… Alb-…  2.01e7 MALDON… CONNIE  Hispan…      52 Female  Albu… NM   
    ##  9 Albuquerqu… Alb-…  2.01e7 MARTIN… GUSTAVO White        56 Male    Albu… NM   
    ## 10 Albuquerqu… Alb-…  2.01e7 HERRERA ISRAEL  Hispan…      43 Male    Albu… NM   
    ## # … with 52,168 more rows, 4 more variables: lat <dbl>, lon <dbl>,
    ## #   disposition <chr>, case_status <chr>, and abbreviated variable names
    ## #   ¹​reported_date, ²​victim_last, ³​victim_first, ⁴​victim_race, ⁵​victim_age,
    ## #   ⁶​victim_sex

``` r
homicides_data %>%
  group_by(city_state) %>%
  summarize(
    number_of_unsolved = sum(case_status=="unsolved"),
    number_of_homicides = n())
```

    ## # A tibble: 50 × 3
    ##    city_state     number_of_unsolved number_of_homicides
    ##    <chr>                       <int>               <int>
    ##  1 Albuquerque,NM                146                 378
    ##  2 Atlanta,GA                    373                 973
    ##  3 Baltimore,MD                 1825                2827
    ##  4 Baton Rouge,LA                196                 424
    ##  5 Birmingham,AL                 347                 800
    ##  6 Boston,MA                     310                 614
    ##  7 Buffalo,NY                    319                 521
    ##  8 Charlotte,NC                  206                 687
    ##  9 Chicago,IL                   4073                5535
    ## 10 Cincinnati,OH                 309                 694
    ## # … with 40 more rows
…
``` r
statistic_df =
  homicides_data %>%
  nest(-city_state) %>%
  mutate(
    result = map(data, prop_test),
    tidy_data = map(result, broom::tidy)
  ) %>%
  select(city_state, tidy_data) %>%
  unnest(tidy_data) %>%
  select(city_state, estimate, starts_with("conf"))
statistic_df
```

    ## # A tibble: 50 × 4
    ##    city_state     estimate conf.low conf.high
    ##    <chr>             <dbl>    <dbl>     <dbl>
    ##  1 Albuquerque,NM    0.386    0.337     0.438
    ##  2 Atlanta,GA        0.383    0.353     0.415
    ##  3 Baltimore,MD      0.646    0.628     0.663
    ##  4 Baton Rouge,LA    0.462    0.414     0.511
    ##  5 Birmingham,AL     0.434    0.399     0.469
    ##  6 Boston,MA         0.505    0.465     0.545
    ##  7 Buffalo,NY        0.612    0.569     0.654
    ##  8 Charlotte,NC      0.300    0.266     0.336
    ##  9 Chicago,IL        0.736    0.724     0.747
    ## 10 Cincinnati,OH     0.445    0.408     0.483
    ## # … with 40 more rows
…
     return(t_test)
}
output = vector("list", 5000)
for (i in 1:5000) {
  output[[i]] = sim_mean_sd(n = 30, mu = 0, sigma = 5)
}
output %>% bind_rows()
```

    ## # A tibble: 5,000 × 2
    ##    estimate p.value
    ##       <dbl>   <dbl>
    ##  1   0.0637  0.936 
    ##  2   1.19    0.136 
    ##  3   2.04    0.0591
    ##  4  -1.94    0.0692
    ##  5   1.56    0.139 
    ##  6  -0.184   0.830 
    ##  7   0.803   0.381 
    ##  8   1.89    0.0241
    ##  9   0.796   0.425 
    ## 10   0.388   0.723 
    ## # … with 4,990 more rows

``` r
#when mu={1,2,3,4,5,6}
results_df =
  tibble(mu = c(0, 1, 2, 3, 4, 5, 6)) %>%
  mutate(
    results = map(.x = mu, ~rerun(5000, sim_mean_sd(n=30,mu=.x,sigma=5))),
    estimated = map(results, bind_rows)) %>%
  unnest(estimated) %>%
  select(mu, estimate, p.value)
results_df
```

    ## # A tibble: 35,000 × 3
    ##       mu estimate p.value
    ##    <dbl>    <dbl>   <dbl>
    ##  1     0   -0.352   0.665
    ##  2     0    0.731   0.452
    ##  3     0    0.273   0.756
    ##  4     0    0.670   0.418
    ##  5     0   -1.13    0.182
    ##  6     0    0.899   0.301
    ##  7     0   -0.925   0.356
    ##  8     0    0.406   0.680
    ##  9     0   -0.761   0.465
    ## 10     0   -0.803   0.413
    ## # … with 34,990 more rows
…
